…
to find how many attendees the events share with each other we first find all the different pairs of events with utils::combn function and with purrr and inner_join finds how many they have in common. Since utils::combn gives its result in a matrix we have to fiddle just a bit to our way back to a tibble.

conn <- combn(node_size$name, 2) %>%
  as.tibble() %>%
  map_int(~ inner_join(sub_data %>% filter(name == .x[1]), 
                       sub_data %>% filter(name == .x[2]), by = "attendee")
              %>% nrow()) %>%
  rbind(combn(node_size$name, 2)) %>% t() %>% as.tibble()
names(conn) <- c("n", "from", "to")
conn

## # A tibble: 45 x 3
##    n     from                              to                              
##    <chr> <chr>                             <chr>                           
##  1 21    A Tidy Data Model for Natural La… bradio: Add data music widgets …
##  2 58    A Tidy Data Model for Natural La… Developing and deploying large …
##  3 82    A Tidy Data Model for Natural La… How we built a Shiny App for 70…
##  4 84    A Tidy Data Model for Natural La… Interacting with databases from…
##  5 84    A Tidy Data Model for Natural La… manifestoR - a tool for data jo…
##  6 100   A Tidy Data Model for Natural La… Neural Embeddings and NLP with …
##  7 84    A Tidy Data Model for Natural La… ShinyProxy                      
##  8 156   A Tidy Data Model for Natural La… Text Analysis and Text Mining U…
##  9 169   A Tidy Data Model for Natural La… Text mining, the tidy way       
## 10 46    bradio: Add data music widgets t… Developing and deploying large …
## # ... with 35 more rows
…
