…
library(tidyverse)
library(gutenbergr)

titles <- c(
  "The War of the Worlds",
  "Pride and Prejudice"
)
books <- gutenberg_works(title %in% titles) %>%
  gutenberg_download(meta_fields = "title") %>%
  mutate(title = as.factor(title)) %>%
  select(-gutenberg_id)

books

## # A tibble: 19,504 x 2
##    text                                                  title             
##    <chr>                                                 <fct>             
##  1 The War of the Worlds                                 The War of the Wo…
##  2 ""                                                    The War of the Wo…
##  3 by H. G. Wells [1898]                                 The War of the Wo…
##  4 ""                                                    The War of the Wo…
##  5 ""                                                    The War of the Wo…
##  6 "     But who shall dwell in these worlds if they be" The War of the Wo…
##  7 "     inhabited? .  .  .  Are we or they Lords of th… The War of the Wo…
##  8 "     World? .  .  .  And how are all things made fo… The War of the Wo…
##  9 "          KEPLER (quoted in The Anatomy of Melancho… The War of the Wo…
## 10 ""                                                    The War of the Wo…
## # ... with 19,494 more rows
…
Now that we have fitted the data based on the training data we can evaluate based on the testing data set. Here we will use the parsnip functions predict_class() and predict_classprob() to give us the predicted class and predicted probabilities for the two models. Neatly collecting the whole thing in one tibble.

eval_tibble <- stopword_test_data %>%
  select(title) %>%
  mutate(
    class_stopword = predict_class(stopword_model, stopword_test_data),
    class_julia    = predict_class(julia_model, julia_test_data),
    prop_stopword  = predict_classprob(stopword_model, stopword_test_data) %>% pull(`The War of the Worlds`),
    prop_julia     = predict_classprob(julia_model, julia_test_data) %>% pull(`The War of the Worlds`)
  )

eval_tibble

## # A tibble: 4,058 x 5
##    title         class_stopword    class_julia     prop_stopword prop_julia
##    <fct>         <fct>             <fct>                   <dbl>      <dbl>
##  1 The War of t… Pride and Prejud… Pride and Prej…         0.332      0.195
##  2 The War of t… Pride and Prejud… Pride and Prej…         0.376      0.452
##  3 The War of t… The War of the W… The War of the…         0.613      0.836
##  4 The War of t… The War of the W… The War of the…         0.535      0.515
##  5 The War of t… Pride and Prejud… The War of the…         0.361      0.591
##  6 The War of t… Pride and Prejud… The War of the…         0.475      0.643
##  7 The War of t… The War of the W… Pride and Prej…         0.646      0.412
##  8 The War of t… The War of the W… The War of the…         0.619      0.579
##  9 The War of t… Pride and Prejud… Pride and Prej…         0.265      0.427
## 10 The War of t… The War of the W… The War of the…         0.697      0.894
## # ... with 4,048 more rows
…
