…
## Loading required package: future

Fetching the Data

The text is provided from the Gutenberg Project. A simple search reveals that the Federalist Papers have the id of 1404.

papers <- gutenberg_download(1404)

## Determining mirror for Project Gutenberg from http://www.gutenberg.org/robot/harvest

## Using mirror http://aleph.gutenberg.org

papers

## # A tibble: 19,359 x 2
##    gutenberg_id text                                              
##           <int> <chr>                                             
##  1         1404 THE FEDERALIST PAPERS                             
##  2         1404 ""                                                
##  3         1404 By Alexander Hamilton, John Jay, and James Madison
##  4         1404 ""                                                
##  5         1404 ""                                                
##  6         1404 ""                                                
##  7         1404 ""                                                
##  8         1404 FEDERALIST No. 1                                  
##  9         1404 ""                                                
## 10         1404 General Introduction                              
## # … with 19,349 more rows
…
param_grid <- grid_regular(range_set(trees, c(50, 250)), 
                           range_set(mtry, c(1, 15)), levels = 5)

Next we create a model specification where we use varying() to denote that these parameters are to be varying.
Then we merge() the model specification into the parameter grid such that we have a tibble of model specifications

rf_spec <- rand_forest("classification", mtry = varying(), trees = varying()) %>%
  set_engine("randomForest")

param_grid <- param_grid %>%
  mutate(specs = merge(., rf_spec))

param_grid

## # A tibble: 25 x 3
##    trees  mtry specs    
##  * <int> <int> <list>   
##  1    50     1 <spec[+]>
##  2   100     1 <spec[+]>
##  3   150     1 <spec[+]>
##  4   200     1 <spec[+]>
##  5   250     1 <spec[+]>
##  6    50     4 <spec[+]>
##  7   100     4 <spec[+]>
##  8   150     4 <spec[+]>
##  9   200     4 <spec[+]>
## 10   250     4 <spec[+]>
## # … with 15 more rows
…
Lastly we predict on the unknown papers.

final_predict <- testing_data %>% 
  bind_cols(predict(final_model, new_data = test_data)) 

We can’t calculate an accuracy or any other metric, as we don’t know the true value. However we can see how the the different paragraphs have been classified within each paper.

final_predict %>%
  count(no, .pred_class) %>%
  mutate(no = factor(no)) %>%
  group_by(no) %>%
  mutate(highest = n == max(n))

## # A tibble: 24 x 4
## # Groups:   no [12]
##    no    .pred_class     n highest
##    <fct> <fct>       <int> <lgl>  
##  1 49    hamilton       13 TRUE   
##  2 49    madison         4 FALSE  
##  3 50    hamilton       12 TRUE   
##  4 50    madison         5 FALSE  
##  5 51    hamilton        8 TRUE   
##  6 51    madison         8 TRUE   
##  7 52    hamilton       10 TRUE   
##  8 52    madison         5 FALSE  
##  9 53    hamilton       16 TRUE   
## 10 53    madison         1 FALSE  
## # … with 14 more rows
…
