Analysing useR!2017 schedule data - Hvitfeldt's blog
…
to find how many attendees the events share with each other we first find all the different pairs of events with utils::combn function and with purrr and inner_join finds how many they have in common. Since utils::combn gives its result in a matrix we have to fiddle just a bit to our way back to a tibble.

conn <- combn(node_size$name, 2) %>%
  as.tibble() %>%
  map_int(~ inner_join(sub_data %>% filter(name == .x[1]), 
                       sub_data %>% filter(name == .x[2]), by = "attendee")
              %>% nrow()) %>%
  rbind(combn(node_size$name, 2)) %>% t() %>% as.tibble()
names(conn) <- c("n", "from", "to")
conn

## # A tibble: 45 x 3
##        n
##    <chr>
##  1    19
##  2    56
##  3    80
##  4    82
##  5    82
##  6    98
##  7    82
##  8   154
##  9   167
## 10    44
## # ... with 35 more rows, and 2 more variables: from <chr>, to <chr>
…
