2017 World Press Freedom Index with emojis - Hvitfeldt's blog
…
The hrbrthemes is not necessary for this project but it is one of my personal favorite ggplot2 themes.

Gathering data

Here we collect the data from Reporters Without Borders, emoji flags and The World Bank (so we have something to plot against).

2017 World Press Freedom Index

We have the 2017 World Press Freedom Index (direct download link) data which we load in as normal.

(freedom_index <- read_csv("https://rsf.org/sites/default/files/index_format_upload_2017-v2_1_0.csv"))

## # A tibble: 180 x 12
##      ISO  Rank FR_Country  EN_country   ES_country
##    <chr> <int>      <chr>       <chr>        <chr>
##  1   NOR     1    NorvÃ¨ge      Norway      Noruega
##  2   SWE     2      Suede      Sweden       Suecia
##  3   FIN     3   Finlande     Finland    Finlandia
##  4   DNK     4   Danemark     Denmark    Dinamarca
##  5   NLD     5   Pays-Bas Netherlands PaÃ­ses Bajos
##  6   CRI     6 Costa Rica  Costa Rica   Costa Rica
##  7   CHE     7     Suisse Switzerland        Suiza
##  8   JAM     8   JamaÃ¯que     Jamaica      Jamaica
##  9   BEL     9   Belgique     Belgium      BÃ©lgica
## 10   ISL    10    Islande     Iceland     Islandia
## # ... with 170 more rows, and 7 more variables: `Underlying situation
## #   score 2016` <dbl>, `Abuse score 2016` <chr>, `Overall Score
## #   2016` <dbl>, `Progression RANK` <int>, `Rank 2015` <int>, `Score
## #   2015` <dbl>, Zone <chr>
…
which all can be found with the new emo(ji) package

emo::ji_find("country")

## # A tibble: 248 x 2
##              name                  emoji
##             <chr>                  <chr>
##  1          japan           "\U0001f5fe"
##  2  crossed_flags           "\U0001f38c"
##  3    afghanistan "\U0001f1e6\U0001f1eb"
##  4  aland_islands "\U0001f1e6\U0001f1fd"
##  5        albania "\U0001f1e6\U0001f1f1"
##  6        algeria "\U0001f1e9\U0001f1ff"
##  7 american_samoa "\U0001f1e6\U0001f1f8"
##  8        andorra "\U0001f1e6\U0001f1e9"
##  9         angola "\U0001f1e6\U0001f1f4"
## 10       anguilla "\U0001f1e6\U0001f1ee"
## # ... with 238 more rows

we first notice that the first two emojis are not country flags, and that the name of the countries are not on same format as what we have from earlier, so we replace the underscores with spaces and translate everything to lowercase before joining. This time by country name. Again we check for missed joints.

left_join(freedom_index, gdp_pcap, by = c("ISO" = "Country Code")) %>% 
  mutate(EN_country = tolower(EN_country)) %>% 
  left_join(emo::ji_find("country") %>% 
              mutate(name = str_replace_all(name, "_", " ")) %>% 
              filter(name != "japan", name != "crossed flags"), 
            by = c("EN_country" = "name"))  %>% 
  filter(!is.na(`2015`)) %>% 
  filter(is.na(emoji)) %>% 
  select(EN_country)

## # A tibble: 22 x 1
##                EN_country
##                     <chr>
##  1                germany
##  2                  spain
##  3    trinidad and tobago
##  4                 france
##  5         united kingdom
##  6          united states
##  7                  italy
##  8            south korea
##  9 bosnia and herzegovina
## 10                  japan
## # ... with 12 more rows
…
         name = str_replace(name, "^guinea bissau$", "guinea-bissau"),
         name = str_replace(name, "^cote divoire$", "ivory coast"),
         name = str_replace(name, "^timor leste$", "east timor"),
         name = str_replace(name, "^congo brazzaville$", "congo"),
         name = str_replace(name, "^palestinian territories$", "palestine"),
         name = str_replace(name, "^ru$", "russian federation"),
         name = str_replace(name, "^congo kinshasa$", "the democratic republic of the congo"),
         name = str_replace(name, "^tr$", "turkey"),
         name = str_replace(name, "^brunei$", "brunei darussalam"),
         name = str_replace(name, "^laos$", "lao people's democratic republic"),
         name = str_replace(name, "^cn$", "china"),
         name = str_replace(name, "^jp$", "japan"))
newemoji

## # A tibble: 246 x 2
##               name                  emoji
##              <chr>                  <chr>
##  1     afghanistan "\U0001f1e6\U0001f1eb"
##  2   aland islands "\U0001f1e6\U0001f1fd"
##  3         albania "\U0001f1e6\U0001f1f1"
##  4         algeria "\U0001f1e9\U0001f1ff"
##  5  american samoa "\U0001f1e6\U0001f1f8"
##  6         andorra "\U0001f1e6\U0001f1e9"
##  7          angola "\U0001f1e6\U0001f1f4"
##  8        anguilla "\U0001f1e6\U0001f1ee"
##  9      antarctica "\U0001f1e6\U0001f1f6"
## 10 antigua barbuda "\U0001f1e6\U0001f1ec"
## # ... with 236 more rows
…
