Repetition in musicals with tidytext - Hvitfeldt's blog
…
so we can slice the data by indication of those tags, furthermore we would like to remove any and all tags present in the text, this can be done using strinr’s str_replace_all function and some fancy regular expressions. Leaving us with the following

start <- " *<!--sse-->"
end <- " *<!--/sse-->"
tibble(text = the_stars_look_down) %>%
  slice(which(str_detect(text, start)):which(str_detect(text, end))) %>%
  mutate(text = str_replace_all(text, "<([^;]*)>", ""))

## # A tibble: 109 x 1
##                                text
##                               <chr>
##  1                                 
##  2                                 
##  3               Through the hunger
##  4            Through the night and
##  5                 Through the fear
##  6            Through the fight and
##  7                Years of hardship
##  8           Through the storms and
##  9                Through the tears
## 10 And although your feet are weary
## # ... with 99 more rows

We notice some of the rows turn up empty so those are quickly dealt with by a filter. Now we employ our tidytext arsenal with unnest_tokens and we find all the bi-grams (pairs of consecutive words). (notice how they overlap)

tibble(text = the_stars_look_down) %>%
  slice(which(str_detect(text, start)):which(str_detect(text, end))) %>%
  mutate(text = str_replace_all(text, "<([^;]*)>", "")) %>%
  unnest_tokens(bigram, text, token = "ngrams", n = 2)

## # A tibble: 546 x 1
##            bigram
##             <chr>
##  1    through the
##  2     the hunger
##  3 hunger through
##  4    through the
##  5      the night
##  6      night and
##  7    and through
##  8    through the
##  9       the fear
## 10   fear through
## # ... with 536 more rows
…
